3.35586009951, 3.2711345533
3.3560089577, 3.27099625292
3.35614032051, 3.27143241295
3.35566815718, 3.27120264795
3.3558950081, 3.27097952246
3.35616583331, 3.27112519991
3.35566501673, 3.27110236896
3.35550010579, 3.27111812407
3.35658556572, 3.27083813791
3.35638090289, 3.27114660015
3.35586114876, 3.27111096813
3.35591207124, 3.27106173337
3.35605300733, 3.27102481685
3.355570163, 3.27113429025
3.35576122973, 3.27096257961
3.35566122992, 3.27116987127
3.35561426774, 3.27117227445
3.35631108414, 3.27134765633
3.35572741926, 3.27109546313
3.35597346285, 3.27132861703
3.35590887252, 3.27113877168
3.35517378563, 3.27070003171
3.35613106096, 3.27094954224
3.3560329317, 3.27100956256
3.35535102927, 3.2712421662
3.35637351011, 3.27096779572
3.35565455556, 3.27088766818
3.35585971962, 3.27108444476
3.35591725425, 3.27105870475
3.35471634366, 3.27074007145
3.3545835908, 3.27055861104
3.35514288305, 3.27010119865
3.35658956107, 3.26944579538
3.35653350925, 3.26957749027
3.3559860592, 3.26913870561
3.35621445478, 3.2683150199
3.35331003621, 3.26465776988
3.35772152462, 3.26411377946
3.355673207, 3.26606605417
3.356696787, 3.26261754403
3.35675223028, 3.26324626915
3.35368655821, 3.26199333255
3.35568764804, 3.26064577865
3.3554232409, 3.25910874479
3.35553694625, 3.2578963862
3.35817340837, 3.25293658046
3.35659061808, 3.2518325929
3.35467349733, 3.24902133312
3.35361449618, 3.24389699669
3.3559159239, 3.23753612746
3.35573676924, 3.23805816946
3.35762470356, 3.23178482272
3.35599758265, 3.22822854584
3.35579808072, 3.22154434269
3.35582591794, 3.21735263247
3.35458109396, 3.20990730097
3.3571322021, 3.20576063785
3.35677697112, 3.19914517871
3.35689510992, 3.19061876216
3.35788464646, 3.18649347614
3.36036506674, 3.1769845517
3.35787575385, 3.16912617695
3.35902767904, 3.16449347857
3.35856618585, 3.15599653843
3.36153618521, 3.14884803368
3.35952454688, 3.13830418404
3.36255187957, 3.13069210728
3.36019826729, 3.12290688146
3.36207536467, 3.11528132306
3.36167338378, 3.10835999964
3.36299164188, 3.1037051338
3.36372145062, 3.09350067219
3.36482137558, 3.08899178873
3.36404902259, 3.07612989802
3.36504513714, 3.07358935541
3.36735055054, 3.06893692156
3.36908381519, 3.05854041769
3.3667603414, 3.05280358413
3.36639078399, 3.04669994516
3.36950728104, 3.04302719718
3.3693773513, 3.03739086636
3.36895302106, 3.0296791779
3.37248103559, 3.02416910304
3.37240545348, 3.02058183661
3.37417829326, 3.01336521508
3.37195510981, 3.00936019757
3.37443619993, 3.0044080299
3.37273046207, 2.99926433663
3.37451689256, 2.99796097851
3.37447756677, 2.99333637342
3.37482697967, 2.98648645025
3.37667282985, 2.98440560258
3.3753086374, 2.97704129754
3.37748143019, 2.9746303356
3.37863541923, 2.96559451272
3.37809326909, 2.96509940015
3.37786936498, 2.96195423416
3.3782954688, 2.95435664413
3.38014586017, 2.94514227952
3.37946128626, 2.94816832165
3.37947538487, 2.94378860356
3.37980481629, 2.93655047552
3.3822326538, 2.93455348454
3.38189422161, 2.9301579783
3.38126456725, 2.92307770219
3.38353194797, 2.92073017401
3.38226256639, 2.91462689836
3.38455000739, 2.905728284
3.38359763671, 2.90540734045
3.38562388692, 2.89949756909
3.38416358493, 2.89531364954
3.38745400906, 2.89234514128
3.38699109104, 2.88808323996
3.38625392934, 2.87921034735
3.38751318932, 2.87364550146
3.38935875347, 2.86693346862
3.38939771103, 2.86254397086
3.3916055039, 2.85872831061
3.39129583466, 2.85324454955
3.39287095105, 2.84815579029
3.3924287347, 2.84213361201
3.39369157731, 2.83545203804
3.39306138145, 2.82764606953
3.39414479329, 2.82453517185
3.3956405326, 2.81335245802
3.39649419273, 2.8132028042
3.39661018768, 2.80505115715
3.39658923389, 2.79699835517
3.39670839143, 2.79407988186
3.39806833754, 2.79208142959
3.39902847711, 2.7866457511
3.40120750094, 2.77981568578
3.39989156701, 2.77644156439
3.39923313011, 2.77112637901
3.39914791665, 2.763485139
3.40133001531, 2.75374007735
3.39992399579, 2.75332774472
3.40310556716, 2.74781969958
3.40187030087, 2.74623448968
3.39963958885, 2.73830758428
3.40318621519, 2.73006291941
3.40202067376, 2.72544357684
3.40188480487, 2.71869727699
3.40335081574, 2.70881847286
3.40431486427, 2.71054844149
3.40397829869, 2.70596435061
3.40504330383, 2.70042667266
3.40534157626, 2.69542350678
3.40640722708, 2.68951117166
3.40708708174, 2.68247730186
3.40552735191, 2.67883380132
3.40804387986, 2.67090844424
3.4075363403, 2.66796414004
3.40834539003, 2.66032157707
3.40645525757, 2.65784798976
3.40793828425, 2.65082475867
3.40689181035, 2.64836763738
3.40729918851, 2.63770256998
3.40714804415, 2.63724580863
3.40956216509, 2.63023494204
3.40779444469, 2.62807128148
3.40833280455, 2.61783959384
3.40816889904, 2.6176663342
3.40792788711, 2.61344536656
3.40913124875, 2.60829274789
3.40877399177, 2.60383258996
3.40943673614, 2.59808278396
3.41085278232, 2.5912325631
3.40962854555, 2.58364615109
3.40972495336, 2.58329815417
3.4069762542, 2.57743929391
3.40779598545, 2.57450583054
3.40953652539, 2.56685954579
3.40728677747, 2.56419533587
3.40695702113, 2.55921748389
3.40813325008, 2.55445211764
3.40912731044, 2.54916427816
3.40880488895, 2.54371466291
3.40794852188, 2.53911820451
3.4081378536, 2.53344808559
3.40762101076, 2.52817482156
3.40922984269, 2.52262390344
3.40820446811, 2.51755687395
3.40757512743, 2.51212177772
3.40554334029, 2.50562577731
3.40720739148, 2.50225775598
3.40489153408, 2.49504429882
3.40765168394, 2.49148829846
3.40485255966, 2.48317771819
3.40746721016, 2.47926960336
3.40645172573, 2.47454976403
3.40685834587, 2.46900428762
3.40714827243, 2.46420890929
3.40697271678, 2.45848977107
3.40509197642, 2.45086753872
3.40496513393, 2.44643296438
3.40872329381, 2.44105293541
3.40457536723, 2.4356849061
3.40679659329, 2.43313848006
3.40660883214, 2.42818994965
3.40804069985, 2.42026033988
3.40438919703, 2.41482440866
3.42442208344, 2.43006240053
3.42490543194, 2.42586210401
3.40594124071, 2.41257199672
3.40340325837, 2.40606799384
3.42501592786, 2.42154093109
3.42628382428, 2.4192324258
3.40552992848, 2.40260868416
3.42679948151, 2.41362081184
3.40441907797, 2.39551979809
3.42495642571, 2.4069779322
3.40564903495, 2.39352510086
3.4056759938, 2.38892600936
3.42709062516, 2.40430965272
3.40683005461, 2.38324654824
3.42381078476, 2.39878031655
3.40653618061, 2.37865440718
3.42431186812, 2.3919652425
3.40598951643, 2.37094840784
3.42599665206, 2.38970808323
3.42234357526, 2.38421223088
3.40392944155, 2.36907158764
3.42278890449, 2.37626354413
3.4024729391, 2.36124337536
3.40580162947, 2.35506231606
3.42303621873, 2.37056026044
3.42331275797, 2.36711104823
3.40592467413, 2.34933753229
3.40381768545, 2.34686565687
3.42333349974, 2.36054480451
3.42225692848, 2.3569549583
3.40348695806, 2.3410790148
3.42491318184, 2.35089144275
3.40078013796, 2.33331962801
3.42365375154, 2.34335272322
3.40304131391, 2.3294324915
3.42447169422, 2.34261118406
3.42556550504, 2.33430539112
3.40105439826, 2.3222449033
3.40348907809, 2.3178294246
3.40313244419, 2.30710357025
3.42372209972, 2.32626059048
3.40345219233, 2.30643524358
3.42525617002, 2.32284760528
3.4027559537, 2.29623708057
3.42259580974, 2.31520647363
3.40197450075, 2.29508196079
3.42447386452, 2.3122589594
3.42194293804, 2.30329909476
3.40230538184, 2.28448579086
3.4222057891, 2.2979902055
3.40133708212, 2.28374687826
3.42429613552, 2.2939617387
3.40139299281, 2.27231140261
3.40156724876, 2.27165761886
3.42234323838, 2.28827231463
3.42180716083, 2.28094251685
3.40161696563, 2.26605951945
3.40243955499, 2.25919247125
3.42158813789, 2.27634763651
3.40035239784, 2.25621026094
3.42366828938, 2.27267646071
3.42300421043, 2.26853594094
3.40020751905, 2.25109532913
3.42185081253, 2.26065942562
3.40079500664, 2.2457659074
3.41962384408, 2.25788849026
3.40080962568, 2.24089357127
3.39843604512, 2.23307337695
3.422783876, 2.25226374823
3.42063296106, 2.24796694538
3.39893474419, 2.22828160726
3.40042548116, 2.2265017554
3.4228143138, 2.24356519487
3.41933357076, 2.23801047464
3.3987504593, 2.21922959637
3.40119476591, 2.21344520442
3.42119343652, 2.23576979393
3.41963574621, 2.22818949582
3.40035342259, 2.21059619513
3.42049947381, 2.22167152819
3.39743370821, 2.20404537757
3.39991920889, 2.20170653702
3.42110671704, 2.21703261947
3.42298007082, 2.21409300417
3.39947755852, 2.19732725233
3.39904569472, 2.19230048013
3.42053916534, 2.212667725
3.39707230081, 2.18544854925
3.42113666731, 2.20312056692
3.42046647995, 2.19861252729
3.39969781515, 2.18010334874
3.42078399245, 2.19310755054
3.39792704084, 2.17742382018
3.42170453964, 2.19031941132
3.39992635896, 2.17015661036
3.41979262847, 2.1827688713
3.39747186231, 2.16758803729
3.39856084326, 2.15630967246
3.42000030594, 2.18225560055
3.42017342394, 2.17269624956
3.39819144861, 2.15719549246
3.39840288578, 2.14728935044
3.42049400439, 2.17222446924
3.39769720604, 2.14673523462
3.42017412978, 2.16247746468
3.4210490947, 2.15920913225
3.39737594041, 2.14153161047
3.42202203552, 2.15390917875
3.39632223062, 2.13295414005
3.41812236964, 2.14800585701
3.39769379929, 2.12500556084
3.39690578903, 2.1223441525
3.42096075934, 2.14478246495
3.41994602953, 2.13467674156
3.39827995504, 2.11423379119
3.39670679846, 2.11382089036
3.42188134275, 2.13189891352
3.39931429408, 2.10529010722
3.42045446516, 2.12238458326
3.39928029191, 2.099439846
3.42138426321, 2.11998796919
3.39593043868, 2.09443489812
3.39684873687, 2.08557143827
3.42037702816, 2.11054055011
3.42034207832, 2.11011624034
3.39598300603, 2.08384335768
3.42068209877, 2.10055733971
3.39834002369, 2.0747146296
3.41764192273, 2.09520506336
3.39621727794, 2.07187177821
3.41976578569, 2.09139730074
3.3964202408, 2.06031991004
3.4191993725, 2.08123421257
3.39773281255, 2.0562302639
3.42020305148, 2.08012292415
3.4193563884, 2.06791762113
3.41969178952, 2.06252649343
3.42041475009, 2.06035453101
3.42042944274, 2.05466283695
3.41893305259, 2.05169006156
3.41892832654, 2.04199767176
3.41999582652, 2.03848157376
3.41714743007, 2.0340720256
3.41818133587, 2.02462968381
3.4179786752, 2.02021472144
3.41896410935, 2.01460469742
3.4177777416, 2.01164692548
3.4171476799, 2.00460018511
3.41920601974, 2.00492619887
3.41659438496, 1.99845625295
3.41807254186, 1.99844181678
3.4157649475, 1.99003117764
3.41696565805, 1.98918456627
3.41512636698, 1.98082176091
3.41606162203, 1.98025604226
3.41413724277, 1.97107791448
3.41233055401, 1.96973278127
3.41533730657, 1.96527602314
3.4132535568, 1.95607049821
3.41514957722, 1.95507249646
3.41279203727, 1.94836285885
3.413312819, 1.94842499664
3.41206163639, 1.93878976576
3.41058629703, 1.93601239244
3.41283767034, 1.9314677579
3.41309622255, 1.92649728641
3.40990912584, 1.91864606568
3.40966341487, 1.91312451231
3.40987542903, 1.91291187995
3.40786573628, 1.90175154805
3.40497225312, 1.89840036741
3.40799372105, 1.89290170311
3.40428128466, 1.8873859292
3.40694859152, 1.87769130591
3.40444456056, 1.87407846329
3.4050880441, 1.87008562909
3.40107691139, 1.86601370388
3.40324653118, 1.86316051799
3.39980908208, 1.85552809277
3.40152084876, 1.84927621913
3.39964774437, 1.84171099775
3.39862542937, 1.83822539651
3.39600944306, 1.83601658783
3.39568776848, 1.82621409376
3.39536237284, 1.8244064726
3.39450952515, 1.81985322304
3.39239261751, 1.81743202992
3.39285882557, 1.81071654285
3.39125646146, 1.80631252348
3.39087690063, 1.80233364324
3.38982866424, 1.79785849319
3.39030977962, 1.79867564077
3.38727004092, 1.79221151957
3.3868594119, 1.78493890631
3.3852380829, 1.78053654053
3.38370437673, 1.77534357841
3.38208140682, 1.77033495186
3.3813384886, 1.76852856104
3.38007866062, 1.76132170808
3.38158396955, 1.75693146154
3.37802590139, 1.75009746435
3.37617828679, 1.74359607552
3.37427875582, 1.73778318361
3.37333709867, 1.7334257842
3.37115417194, 1.72795714614
3.37176918072, 1.72410191242
3.36764300164, 1.71939188289
3.36391706772, 1.71327475558
3.3648659691, 1.7036983152
3.36230385715, 1.69917530667
3.35965331207, 1.69288300824
3.35759623987, 1.68693597466
3.3559839792, 1.68004466276
3.35411965355, 1.67631775235
3.35109522205, 1.67041362982
3.35126026198, 1.66442857918
3.3496129812, 1.66062772825
3.34689453058, 1.65569339082
3.3443322398, 1.65098051478
3.34360000906, 1.64904611871
3.34157940515, 1.64189319883
3.33993814562, 1.63760922642
3.3382019501, 1.63344126435
3.33645507212, 1.62921226492
3.33476872696, 1.62401889364
3.33305413211, 1.61995413582
3.33086310436, 1.61670450881
3.32927363378, 1.61148088873
3.32748694164, 1.60836472259
3.32556048834, 1.60362850046
3.32379715395, 1.59912546125
3.3228489779, 1.59603570432
3.31995168623, 1.59071988563
3.31847581909, 1.58665616302
3.31611039954, 1.58107783967
3.31319726399, 1.57610592415
3.31177760403, 1.57111891705
3.30918543776, 1.56803817226
3.30654031257, 1.5608629445
3.30446605155, 1.55593015455
3.30167101376, 1.55183662399
3.29869901213, 1.54649858444
3.29609584978, 1.54123686984
3.29303516596, 1.53568882056
3.29183377812, 1.53160601428
3.28838169807, 1.52565083243
3.28502838423, 1.51921375722
3.28257871851, 1.51519001545
3.27977588798, 1.51055880992
3.27694551596, 1.5045142495
3.27418250647, 1.49795417986
3.27091241844, 1.49405189042
3.26854175228, 1.4893126653
3.2654284586, 1.48340856293
3.26414028144, 1.47826518329
3.26099366237, 1.47421633742
3.25863105656, 1.46961815605
3.25553817511, 1.46360824282
3.25281018547, 1.46042846451
3.25074783588, 1.45628456568
3.24927782604, 1.45279469611
3.24627796309, 1.4481488442
3.24399550235, 1.44393741668
3.24181408826, 1.44066045378
3.23946734639, 1.43586093123
3.23796979014, 1.43181273635
3.23536765454, 1.42879609709
3.23320299181, 1.42496081686
3.23014448063, 1.42100031459
3.22790287343, 1.41697872843
3.22559979584, 1.41158117829
3.22235087572, 1.40786374125
3.21981878827, 1.40283397291
3.21777911064, 1.39842804061
3.21428279688, 1.3946958078
3.21186184599, 1.38910242244
3.20776887835, 1.38597457174
3.20539008544, 1.38077930446
3.20300091954, 1.37626260727
3.19932204933, 1.37079524794
3.19627915912, 1.36557465225
3.19294071704, 1.36072424766
3.18973641509, 1.35748246682
3.18623743308, 1.35306138196
3.18378428446, 1.34794824549
3.18055129475, 1.34415056478
3.17761658422, 1.33970104159
3.16985425314, 1.33026183087
3.16621037619, 1.32575962648
3.16356256539, 1.32100992828
3.16101327646, 1.31708637829
3.15781287454, 1.31232860713
3.15654798988, 1.30944155357
3.15229722378, 1.30300735246
3.14953576954, 1.2997827018
3.14634928235, 1.29580867176
3.14408259126, 1.29172542887
3.14134742342, 1.28921796004
3.13836043573, 1.28356242355
3.13566165027, 1.28069338243
3.13338195744, 1.27797862794
3.12995590682, 1.27271831735
3.12695769298, 1.27058486276
3.12433595669, 1.2657054486
3.12203926719, 1.26209727576
3.11830140162, 1.25732190527
3.11552864132, 1.25517519257
3.1140441741, 1.25166489008
3.11051744973, 1.24755528298
3.10567886427, 1.2426896456
3.10393922234, 1.23842237591
3.10133967507, 1.23458785309
3.09665532875, 1.22970323232
3.0933329029, 1.22530175091
3.08973712623, 1.22127145999
3.08711854006, 1.21844398873
3.08333586944, 1.2135628277
3.08051320573, 1.20875162435
3.07664273135, 1.20543429265
3.07256478597, 1.20136776276
3.07054719867, 1.1975782591
3.06628144258, 1.19381088539
3.06420443456, 1.1902933781
3.05938295717, 1.18685812528
3.05599152093, 1.18284472652
3.0525305282, 1.1793739759
3.04984578497, 1.17510595033
3.04558560231, 1.17165568944
3.04232810414, 1.1677841516
3.03810609732, 1.16368905801
3.03434528984, 1.15966962535
3.03269444593, 1.157267261
3.02889428863, 1.15290183688
3.02570667447, 1.14987698304
3.02147592222, 1.14484188558
3.01796822669, 1.14347695225
3.01485542574, 1.13932584739
3.01187142773, 1.13481207824
3.00908715173, 1.13142348373
3.00421030839, 1.12799649083
3.0015911677, 1.12522100223
2.99778746421, 1.12068418138
2.9933889715, 1.11666868333
2.99105330151, 1.11443227747
2.98669312871, 1.10981222295
2.98282342621, 1.1060154133
2.97997797123, 1.10331747319
2.97668900087, 1.10066886344
2.97255573233, 1.09695492113
2.96834183567, 1.09351434989
2.96522219777, 1.09009818567
2.96085266299, 1.08618401414
2.95668336347, 1.0828869008
2.95289201812, 1.07956643973
2.94832269018, 1.07616462379
2.94786286855, 1.07470648651
2.94163448625, 1.06986576185
2.93733525722, 1.06628588938
2.93215229597, 1.06310446594
2.92913014608, 1.05850354999
2.92518193826, 1.05646002163
2.92110951959, 1.05271832811
2.91647382467, 1.04931752295
2.91291244513, 1.04691641459
2.90866758625, 1.04330858683
2.90569778562, 1.04057141132
2.90070692709, 1.03752170565
2.89724820783, 1.03437083785
2.89245233862, 1.03076939259
2.88948261635, 1.0281415283
2.88548055424, 1.02568861419
2.8814795733, 1.02272443415
2.87810821999, 1.02004936799
2.87416829498, 1.01698429164
2.87021058193, 1.01403482046
2.86612486918, 1.01184817144
2.86219709191, 1.00870237044
2.85859193356, 1.00532477566
2.85442984525, 1.00289730071
2.84995881034, 0.999750296737
2.84933380101, 0.997694484115
2.84253232208, 0.994780161225
2.83823349911, 0.992031040568
2.83366117473, 0.989393154245
2.82938371645, 0.985724528185
2.82630240525, 0.9833698801
2.8220955012, 0.981268095468
2.81829223699, 0.978982149389
2.81490770451, 0.975319290074
2.80981377158, 0.973745540133
2.80556323623, 0.97151043401
2.80130176066, 0.96917428824
2.79713657475, 0.966938803134
2.79271524118, 0.963919468914
2.78907396377, 0.961059646776
2.78434146839, 0.958692685061
2.77976203855, 0.956454296218
2.77459839534, 0.953406889289
2.76996036836, 0.951182721814
2.76584790307, 0.949045325739
2.76450100701, 0.946631587569
2.75696263184, 0.944701386295
2.75259930296, 0.942429636764
2.74855646361, 0.940274098603
2.7433849202, 0.937943815196
2.73897696225, 0.935834443267
2.73477117735, 0.933845356861
2.73032063475, 0.93185706752
2.72591800212, 0.92999723166
2.72114309493, 0.927124432733
2.71674611064, 0.92486026173
2.71215258005, 0.922576634836
2.70645547948, 0.919873428546
2.70188750923, 0.918267794186
2.69703595619, 0.915930030565
2.69262533269, 0.913310033003
2.68727527884, 0.911587715965
2.68101592592, 0.908850094746
2.67746603739, 0.907287836838
2.67504841495, 0.903194386249
2.67093440585, 0.903610115521
2.66618784226, 0.900701411703
2.66163948924, 0.899099176682
2.65358268942, 0.897715161011
2.65194501873, 0.895062496965
2.64508037701, 0.894505953466
2.64279974127, 0.896255536338
2.63782330278, 0.891678266595
2.63416552861, 0.890200250189
2.63467027295, 0.890681287715
2.62874196744, 0.887180717866
2.6214290248, 0.887035575358
2.61975238374, 0.88385114831
2.61550639721, 0.882893532418
2.61362508243, 0.883184893063
2.60468196561, 0.880587674298
2.60194350345, 0.88162462326
2.59438217217, 0.877731579879
2.59556471313, 0.87761625423
2.58967293456, 0.87279848318
2.58480025694, 0.872793843666
2.58272217618, 0.873198085298
2.57588319689, 0.869452386206
2.57374448813, 0.870125539197
2.56710113549, 0.866205249773
2.56107423591, 0.869120562949
2.55736317561, 0.86341413606
2.55410215226, 0.864378908215
2.54801043426, 0.860743262357
2.54459214473, 0.861609996891
2.53456856156, 0.858229312176
2.53360766396, 0.857933927015
2.52599399545, 0.858680791263
2.52356522707, 0.854389148497
2.51240034112, 0.851855937354
2.51032766509, 0.852410716867
2.50265523526, 0.849780111678
2.50161243505, 0.847600222214
2.49530953678, 0.849731847845
2.49182323833, 0.842906296675
2.48909267086, 0.844560497807
2.48202892138, 0.84167376692
2.47847870063, 0.842878543702
2.47191235368, 0.839791987247
2.4690950789, 0.840068679264
2.46491549422, 0.839062538859
2.45998642499, 0.837080931112
2.45660675986, 0.837341873128
2.44838760661, 0.836875010088
2.44781581903, 0.834831689525
2.44144164774, 0.833741661906
2.43899784173, 0.832786822572
2.43146862057, 0.836061658458
2.42665852789, 0.834025646596
2.4253126642, 0.832391726473
2.41913270181, 0.830218536959
2.41461629152, 0.832424157226
2.40832117571, 0.829488102292
2.40830707465, 0.828489189458
2.40367424312, 0.82907664954
2.39719560073, 0.830168179398
2.39542894405, 0.827641226403
2.3886939195, 0.829210337828
2.38449236651, 0.827486035267
2.38049463554, 0.823081682322
2.37576241888, 0.826049431523
2.37111359465, 0.82575515162
2.36634858509, 0.822362041264
2.36150029825, 0.820272950324
2.35635736529, 0.820193775253
2.35278597937, 0.821038429229
2.34594346468, 0.819729809094
2.34217658652, 0.819478295712
2.33655850467, 0.818973563801
2.32863474711, 0.816080965732
2.3252768309, 0.817336718929
2.32054959668, 0.817504921594
2.31476912032, 0.817872281944
2.30732758849, 0.814659343503
2.30362101335, 0.81593411538
2.29623272158, 0.814466830614
2.29336196775, 0.815321643835
2.28891120173, 0.814031963505
2.28331585536, 0.81393657723
2.27732285411, 0.812206193683
2.27458861971, 0.813663033175
2.26882169071, 0.813985217986
2.26456890994, 0.811863950392
2.25713401085, 0.810469779524
2.25310399029, 0.814656854291
2.24861399338, 0.810508135309
2.24706102052, 0.813014305069
2.23932174589, 0.815358602065
2.23773382713, 0.813005626324
2.2306605924, 0.813993410191
2.22843061422, 0.813103271098
2.21956049302, 0.813086299553
2.2152824734, 0.813562170033
2.2134884782, 0.814947211511
2.21047314893, 0.812594640835
2.20418636362, 0.815219238569
2.19718949413, 0.813300060576
2.19478470046, 0.816529346696
2.19245163361, 0.813691565731
2.18304767168, 0.813533724927
2.18079792176, 0.812939006225
2.17645994135, 0.816248954295
2.17373393841, 0.813978286529
2.16661888838, 0.816992528223
2.16170506854, 0.818056558642
2.15714730164, 0.814711516844
2.1488819721, 0.817107781384
2.14895709055, 0.816714178275
2.13876111195, 0.817462291655
2.1362043942, 0.820266526283
2.12813041481, 0.817997160332
2.12292305982, 0.818169765354
2.12000984681, 0.821039139509
2.11631553572, 0.817573501517
2.10690113354, 0.82033196866
2.10034348498, 0.820073288708
2.09714159113, 0.820697545461
2.09604517922, 0.820498015409
2.08558357765, 0.821274424157
2.0799269259, 0.821508388195
2.07535767306, 0.821568137354
2.07230146389, 0.821979395996
2.06929214434, 0.824986536765
2.06081241768, 0.822611249039
2.05831827624, 0.821951190271
2.05065335473, 0.823307667939
2.04951054193, 0.822471505139
2.04270229537, 0.825268346659
2.04093361777, 0.82797759115
2.03637956052, 0.827865824987
2.03176580242, 0.828646076993
2.02616488366, 0.826354733056
2.01727484646, 0.829598856125
2.01558374678, 0.827794397071
2.01157020149, 0.832564907438
2.00532560465, 0.829171231341
1.99612201472, 0.832541042022
1.9906725718, 0.832891316621
1.98904146964, 0.832138634742
1.98317705572, 0.833432155672
1.97878545472, 0.833789270849
1.97306701501, 0.834634728417
1.9679587341, 0.835543129758
1.96310343452, 0.838088846672
1.9614173025, 0.838436957843
1.94931581206, 0.842225443964
1.94815135875, 0.840812475356
1.94367576106, 0.842164249225
1.93454942236, 0.84536706291
1.93384581103, 0.845658684269
1.92597422397, 0.84841350339
1.92681451333, 0.847912145339
1.91988395292, 0.847883581287
1.91201296739, 0.851160782411
1.90937707227, 0.851913155661
1.90793154195, 0.851002309901
1.90152612929, 0.854245153421
1.89725586551, 0.855229435777
1.89446126338, 0.857007335903
1.89045656632, 0.857456535041
1.88625652314, 0.859246583285
1.88201560732, 0.860799527823
1.87860943926, 0.86099932731
1.87742510632, 0.85905926506
1.87175075578, 0.862376329948
1.8676424279, 0.864291085449
1.86605934648, 0.86256845105
1.8596810389, 0.86715055811
1.85536220326, 0.867854294897
1.85021480868, 0.869023446947
1.84609753829, 0.870740975402
1.84398006377, 0.869427317161
1.83716633791, 0.873887831184
1.83218505904, 0.874362569992
1.82751050837, 0.875815209397
1.82511377604, 0.879344231371
1.81711020583, 0.879149814106
1.81106388467, 0.882633616201
1.8062475721, 0.885050618827
1.79953664548, 0.886797706621
1.79446653873, 0.886654102839
1.78898898146, 0.888977254898
1.78302083808, 0.892514805085
1.7772069938, 0.895011722464
1.77225724364, 0.896360399068
1.76652995551, 0.899238765854
1.76056062562, 0.901869877547
1.75552003777, 0.905626411101
1.7503718829, 0.90704025042
1.74544361595, 0.909148859188
1.73990799347, 0.911330122052
1.73508392021, 0.914515082999
1.730222731, 0.915958030458
1.72572864086, 0.917947197181
1.72403671387, 0.919257435046
1.71723450961, 0.922172623583
1.71360058832, 0.924999846752
1.71030386907, 0.926790152752
1.70569347727, 0.928150977546
1.70179273553, 0.930791696563
1.69864204661, 0.932424606275
1.69502519106, 0.933812062167
1.69211102116, 0.935450809198
1.68862893905, 0.937046818396
1.68525311985, 0.938708994692
1.6818500203, 0.940954494634
1.67787467457, 0.942231556731
1.67404862126, 0.944272994241
1.67028338395, 0.946203126704
1.66298879488, 0.950012448364
1.65869052541, 0.951975623534
1.65444139239, 0.954450377313
1.65028428787, 0.956405719613
1.64579491419, 0.957397884273
1.64132060926, 0.96108544414
1.63528568802, 0.967008691009
1.63098747791, 0.970061518624
1.62557205947, 0.972384157188
1.62139027886, 0.975434861183
1.6166307822, 0.979170089343
1.61064823936, 0.981673473533
1.60588155013, 0.983942832247
1.60216271021, 0.987812667336
1.59808087143, 0.991432533836
1.59352375943, 0.993356307619
1.58845082779, 0.996646394058
1.58509074021, 0.998833478849
1.58111427709, 1.00192192853
1.57811831045, 1.00514947566
1.57302414626, 1.00740299685
1.5681142269, 1.01147827492
1.56857357963, 1.00802247034
1.56068941419, 1.01566879753
1.55515999425, 1.01967366586
1.55191169938, 1.02149342638
1.54931842634, 1.02529218365
1.54449095921, 1.02753195594
1.54224669895, 1.02950825701
1.537874315, 1.03310940852
1.53403988884, 1.03602614203
1.53278653562, 1.03499778909
1.52717102114, 1.04062430141
1.52359743772, 1.04420744442
1.52044872077, 1.04607262443
1.5161157303, 1.04881258906
1.51218010936, 1.05202592159
1.50812090679, 1.05527034304
1.50427921008, 1.05763562844
1.50143077862, 1.06029268272
1.49798942279, 1.06353462681
1.49445725728, 1.06613346453
1.4901050356, 1.06968595751
1.48639764393, 1.07169872315
1.48301589176, 1.07474146926
1.47999903983, 1.07843894884
1.47721279867, 1.07967351584
1.47080690922, 1.08548591702
1.46793028918, 1.08903837562
1.46410979934, 1.09239848248
1.45903985226, 1.09511407845
1.45481333944, 1.09904853949
1.45248139417, 1.10276236228
1.44792494693, 1.10666279985
1.44411051318, 1.11001529833
1.44031327611, 1.11343730535
1.4365244865, 1.11664636104
1.43294496116, 1.11979942234
1.42977632548, 1.12395233876
1.42600760478, 1.12718126287
1.42531454608, 1.12910972535
1.41793060685, 1.13392289501
1.41562447726, 1.13355552624
1.41177433093, 1.14045651734
1.40802400725, 1.14405775587
1.40473872726, 1.14745293004
1.40155691021, 1.15152522052
1.39817131542, 1.15418245589
1.39404397091, 1.15888875277
1.39114026023, 1.16161647669
1.38684679974, 1.16433405225
1.38387919469, 1.16823761847
1.37989882486, 1.17250193586
1.37736331377, 1.17521289771
1.3740815169, 1.17925184447
1.36939920794, 1.18273671897
1.36569024773, 1.18733076237
1.36476964477, 1.18709335911
1.35930281545, 1.19364151775
1.35596364875, 1.19795247402
1.3521752961, 1.20157134892
1.34879386835, 1.20494218387
1.34489535986, 1.20842423255
1.34162949459, 1.21357827675
1.33812572449, 1.21778213798
1.33423795188, 1.22135043244
1.33066844897, 1.2263861488
1.32622336133, 1.23111362465
1.32420252598, 1.23442090904
1.31987584022, 1.23881230684
1.31688583233, 1.24394509903
1.31364188374, 1.24835854627
1.30979575617, 1.25375393494
1.3063295602, 1.25645226677
1.30207255276, 1.26040000083
1.2981621422, 1.26665598133
1.29590038063, 1.26977011707
1.29283517205, 1.27464836149
1.28970636117, 1.27976867951
1.28678977637, 1.28289417416
1.28372925019, 1.28842807582
1.28234230055, 1.28889709321
1.27799346833, 1.29590829577
1.27508798901, 1.29943791642
1.27211149886, 1.30358101572
1.26977615491, 1.30841336989
1.26640597369, 1.31219657677
1.26341964538, 1.31635327727
1.26070031287, 1.32093589771
1.25922271946, 1.32103074567
1.25533113206, 1.32751663897
1.25307474374, 1.33238715117
1.25042720241, 1.33599322933
1.24755447731, 1.34036449877
1.2451322346, 1.34465379158
1.24162703397, 1.34913067008
1.23871471932, 1.35359025247
1.23582619601, 1.35699965704
1.23390914517, 1.36135513569
1.23057070243, 1.36824198599
1.22774951743, 1.37106302296
1.22476153227, 1.37655463763
1.22193724155, 1.37959585912
1.21925947762, 1.38174957794
1.21413121106, 1.38661122458
1.21384459252, 1.39495892096
1.21120641281, 1.39925623922
1.20908721501, 1.40332105258
1.2057749944, 1.40769626229
1.20316027769, 1.40929393643
1.20096186394, 1.41712019463
1.19846267333, 1.42168561369
1.19634385704, 1.42689180346
1.1936212084, 1.43205282048
1.18990424462, 1.43620538072
1.18763018581, 1.44193652585
1.18631547404, 1.44656092619
1.1839389052, 1.45086907159
1.18483629912, 1.45543623996
1.17872764496, 1.45990063436
1.1769427979, 1.46601608421
1.17495179848, 1.47047755643
1.17239642693, 1.47101144421
1.17114341342, 1.47544597248
1.1685042047, 1.48516393439
1.16582259935, 1.48857315582
1.16331591619, 1.49305421878
1.16103752571, 1.49561940351
1.15899350427, 1.5036717838
1.15562781088, 1.50871072317
1.15303129234, 1.51344329435
1.1512576105, 1.51585741562
1.14961820781, 1.52383837806
1.1463852929, 1.52914345542
1.14406123907, 1.53192899999
1.14408612667, 1.53821651187
1.13872977043, 1.54586365088
1.13894738156, 1.5486799158
1.13503884437, 1.5558293142
1.13522589562, 1.55681529333
1.13022852896, 1.56687359815
1.12895132489, 1.56892234226
1.12961066664, 1.57470410877
1.12832945126, 1.57677181282
1.12297492856, 1.58649596341
1.12404229219, 1.58916763352
1.12085340697, 1.59293715451
1.11819614339, 1.59573050176
1.11597792395, 1.60605922465
1.11770989697, 1.60880979284
1.11369397388, 1.61575793886
1.11412445969, 1.6189790283
1.11061636789, 1.62249623222
1.10861003947, 1.6302851504
1.10959557352, 1.63275255618
1.10827892135, 1.63493132211
1.10535772685, 1.63970851016
1.10434014895, 1.646199164
1.10351394292, 1.65197006194
1.10284375463, 1.65700411994
1.10145239237, 1.66213505736
1.09640143639, 1.6660640044
1.09824503947, 1.67244031027
1.09384118475, 1.67686835311
1.09532970496, 1.68247720828
1.09332614674, 1.68558830251
1.0919717043, 1.69385781873
1.09077717796, 1.70025464439
1.08623296325, 1.70749469468
1.08606036707, 1.70860108034
1.08330724618, 1.71922471588
1.08416983558, 1.72224479104
1.08310315536, 1.72827705528
1.07939996438, 1.73180755991
1.07844529038, 1.73749991584
1.07935931314, 1.74549550167
1.07726864997, 1.751734378
1.07375227323, 1.75996529463
1.07402085289, 1.7617124954
1.07057245304, 1.77144613419
1.07088946449, 1.77269190786
1.07048530155, 1.7795489749
1.06840582881, 1.78323886697
1.0665965173, 1.79277379066
1.06806757952, 1.79644611275
1.06688770721, 1.80144479277
1.06621587946, 1.80741657772
1.06328537317, 1.8103892718
1.06152142664, 1.81841151699
1.06341027218, 1.82372997272
1.06000991611, 1.82848277166
1.06086866897, 1.83472022862
1.06083825966, 1.83743138681
1.05972584538, 1.84605517516
1.05904372528, 1.85135579785
1.0559279299, 1.85515154019
1.05500598457, 1.86468908972
1.05472392461, 1.87204221635
1.05466481133, 1.87452182218
1.05483168805, 1.88113609575
1.05095901691, 1.88385301313
1.04965149562, 1.89223083457
1.05043206827, 1.89864453341
1.04674274724, 1.90488299954
1.0469546318, 1.90752777153
1.04879583466, 1.91506858339
1.04394904563, 1.92120739181
1.04693378254, 1.92557110449
1.04196708764, 1.9308532981
1.0446912701, 1.93383521845
1.0442565138, 1.94069066281
1.04323399463, 1.94826005157
1.03885469286, 1.95232466377
1.04068010629, 1.95526552114
1.03793875625, 1.96218519121
1.03916845944, 1.9708926267
1.0390359585, 1.97604932498
1.03812112559, 1.97494930582
1.03669419699, 1.98740928046
1.03745108114, 1.98541268007
1.03612192385, 1.99500150494
1.03667802121, 1.99512943187
1.03722468682, 2.00262481691
1.03510498035, 2.00541690192
1.03583546916, 2.01270725126
1.03241071896, 2.01800319033
1.03266900977, 2.02560742518
1.03425981802, 2.02616148926
1.03339068426, 2.03333811274
1.03045573309, 2.03833802928
1.03057233818, 2.0461761144
1.03058507744, 2.0464427261
1.02969939817, 2.05675695695
1.02963773131, 2.05794716172
1.02987919813, 2.06329909364
1.02811081316, 2.06880452888
1.02800321883, 2.08094310651
1.02739094847, 2.08294185495
1.02787716687, 2.08711618673
1.02498781661, 2.09782334444
1.02515233667, 2.09947870064
1.02435281724, 2.11085734338
1.02310716213, 2.11599376834
1.02446136999, 2.11764802308
1.02136774701, 2.12531267749
1.02217800288, 2.12906824012
1.02065302769, 2.13949156495
1.01926467145, 2.14336564328
1.0206868046, 2.15368047349
1.02062097775, 2.1578052401
0.98081971175, 2.15228530774
1.01566619001, 2.15995367107
1.01806592704, 2.16703681779
0.981213651273, 2.15772333492
0.981338824339, 2.16156923647
1.01697437984, 2.17053979185
1.01754720813, 2.1776176576
0.977684699544, 2.16649956912
1.01506098093, 2.18081037892
0.977918964682, 2.16985836333
1.0174749509, 2.18639573792
0.977543337731, 2.17512784435
0.976949280222, 2.17985829627
1.01495398029, 2.19058771141
0.977153546695, 2.18451646143
0.976458850669, 2.1888573899
1.01492303608, 2.19752506336
1.01274952031, 2.200517004
1.0156236931, 2.20491662926
0.977269452948, 2.19353017607
1.01416182659, 2.21166387822
0.976724512528, 2.19749949781
0.976690471868, 2.20228110541
1.01485971381, 2.21143494205
0.975687344507, 2.2054684329
1.0140600252, 2.2199817705
1.01544763785, 2.21970055862
0.976134401932, 2.20974664843
0.97341171935, 2.21634897356
1.01361874031, 2.22823536563
1.01135830875, 2.23052018176
0.975829341755, 2.21856417721
1.01306866448, 2.23191535578
0.97760356411, 2.22475829388
1.01239959378, 2.24045034616
0.976892011241, 2.22899437197
0.976155526487, 2.2331872651
1.01140746941, 2.24214958188
1.01197218567, 2.24936557495
1.01095553483, 2.25202098444
0.973978206058, 2.23584992092
1.00977908722, 2.25659487524
0.974181293318, 2.24097823663
0.972926793236, 2.24814860631
1.00993807386, 2.26172580133
0.976657072766, 2.25394998726
0.976064861815, 2.25913719998
1.00996913419, 2.26909049293
0.973044232678, 2.26177671267
1.00951215029, 2.27202655675
1.01008335178, 2.27907408086
0.971077440619, 2.26989334953
1.0119559787, 2.28093549465
1.00904263395, 2.29166323691
0.971706129369, 2.27582950937
0.975700948682, 2.28269235965
1.00928271553, 2.29314945996
0.974441138088, 2.28570773911
0.96939449577, 2.2929428122
1.00856820248, 2.3031477895
0.972247432442, 2.30278735456
1.01065225684, 2.30719678216
1.00997343594, 2.31352351814
1.00712956309, 2.32224617419
0.971004408613, 2.30438692717
1.00691026077, 2.3275675995
0.971370282555, 2.31047399349
0.970019302333, 2.31706273131
1.00661627252, 2.33490387865
0.968527398606, 2.32509070115
1.00570680072, 2.34079533888
0.969344522278, 2.32862487202
1.00802636677, 2.34429041494
0.970160116435, 2.33473341745
1.00615323985, 2.35187032994
1.0054076512, 2.35794592582
0.968449962271, 2.34620538016
1.00608244332, 2.36341753342
0.969241749588, 2.35143402629
1.0042808561, 2.36861925653
0.967644780711, 2.35666860256
1.00685725193, 2.37129410705
0.967073069435, 2.36448607279
0.966679557087, 2.36940300956
1.00527574004, 2.37525011381
1.00350677166, 2.38459150733
0.968991554492, 2.37765621946
0.967867276154, 2.37788116706
0.970381053745, 2.38545696898
0.966542897428, 2.38826444271
0.967084077996, 2.39315332946
0.968159435963, 2.40238242992
0.967137666534, 2.40233675506
0.969541475249, 2.41018146431
0.968159544621, 2.41804077356
0.966706485184, 2.41810731985
0.966538503542, 2.42342995976
0.967704461689, 2.43131449188
0.965584614613, 2.43336611583
0.966330429959, 2.43726610915
0.968405668757, 2.44528966912
0.965221647302, 2.44801478021
0.965127939256, 2.45287896324
0.964059449814, 2.46057754318
0.966212095967, 2.46769114833
0.968652069665, 2.47127663862
0.965355798613, 2.47409728355
0.965351336812, 2.47948343887
0.964715544894, 2.4864946028
0.964185501203, 2.49178629657
0.963230421262, 2.49988608804
0.962418729349, 2.50437595097
0.963128262932, 2.50952357643
0.966566859307, 2.52129252583
0.963369052857, 2.52479642628
0.961791736253, 2.53274111512
0.961805851716, 2.53735518688
0.962789974794, 2.54048104681
0.965798204639, 2.54726773159
0.966205174397, 2.55281942208
0.963109293538, 2.56051341046
0.964745630925, 2.56257742219
0.961587897151, 2.5698281723
0.96015360264, 2.57538038537
0.965220466398, 2.58244545299
0.964482599198, 2.58732801738
0.963212835442, 2.59352506571
0.964225632076, 2.59807337204
0.964498784486, 2.60242929883
0.961396255333, 2.60581629367
0.964158094261, 2.61389794099
0.961396105765, 2.61614027453
0.962329086694, 2.62667581186
0.963024424397, 2.63247683074
0.961452695398, 2.63267258595
0.962181812995, 2.64271130287
0.963362875235, 2.64647404648
0.961114673051, 2.64902413184
0.958464373677, 2.65653103195
0.961083343102, 2.66477442166
0.960481175485, 2.66563953369
0.958631981152, 2.67556680594
0.960392757331, 2.68202587768
0.956722910506, 2.6856933224
0.959089680853, 2.69367071638
0.959254450959, 2.69897655218
0.960293706222, 2.70551545543
0.958734387621, 2.70647934073
0.96227279717, 2.71325683871
0.959484580627, 2.71704638096
0.959047500527, 2.72735004896
0.95857012149, 2.73268316688
0.961795161792, 2.73666423126
0.955436905172, 2.74276333824
0.955701304377, 2.74701313468
0.954930347804, 2.75233167679
0.960424919184, 2.75814202016
0.960239495094, 2.76382914844
0.954748989542, 2.76931815841
0.955062730235, 2.77383349321
0.955460679903, 2.77947768635
0.956830932543, 2.78666807074
0.959289109658, 2.79024089378
0.958962988836, 2.80100687741
0.95640724494, 2.80404724499
0.957148137951, 2.80945509901
0.958254287518, 2.81673167294
0.95851873539, 2.82313871214
0.958927576944, 2.82817256795
0.955741950445, 2.83062791317
0.956642843975, 2.84078881221
0.956135343676, 2.85158228376
0.95658078788, 2.85838352519
0.953789230597, 2.86074500422
0.956507116136, 2.86914450758
0.958793707078, 2.87194670886
0.955529108517, 2.87961299191
0.952803260471, 2.88404357729
0.955215243625, 2.89170869359
0.956828149236, 2.89636765158
0.951970085143, 2.90154162597
0.951188368094, 2.90841307983
0.956934496784, 2.91420125742
0.951043625698, 2.92014973727
0.952645157842, 2.92608879832
0.954234332685, 2.93460243055
0.952648555371, 2.93711750333
0.950607490831, 2.94494952098
0.952837991043, 2.95270800336
0.953778959943, 2.95866700588
0.953795857313, 2.96497928982
0.950960772248, 2.96835334837
0.953000076169, 2.97548738055
0.951224181612, 2.97949503623
0.953506788187, 2.98721853007
0.953268893345, 2.98879311059
0.953081724579, 2.99838859753
0.950217923253, 3.00230280717
0.95329066602, 3.0148171488
0.953149962687, 3.02068269531
0.951476857066, 3.02401516008
0.950416149639, 3.02997180635
0.952794266395, 3.042740133
0.952924668428, 3.04822954319
0.951297373658, 3.05208225106
0.951519122814, 3.05752774664
0.951205552569, 3.06333696304
0.952782144885, 3.07179333558
0.953847310654, 3.07611246585
0.950435010398, 3.08172763152
0.952447522356, 3.08962384745
0.952606828937, 3.09685125002
0.952077908249, 3.10225365877
0.951709510438, 3.1089200317
0.952002863248, 3.11558156027
0.951772565976, 3.12072273645
0.954546736332, 3.12430541039
0.951397441238, 3.13331583628
0.951512815244, 3.13926633358
0.95132735437, 3.14529160883
0.949970297249, 3.14896628506
0.951868406733, 3.1571548609
0.951722721263, 3.16182221665
0.951089415212, 3.17301754711
0.949050373259, 3.17630085756
0.951117692509, 3.18393943018
0.950659973583, 3.18890760036
0.951177106095, 3.19444502252
0.953773366467, 3.19762909233
0.950616255482, 3.20504128005
0.948495753146, 3.20809166975
0.95061906656, 3.21574860808
0.951305594295, 3.21640624275
0.951136842708, 3.22581882671
0.950904250684, 3.23084775847
0.950426804926, 3.23719704287
0.95071955938, 3.24257869711
0.950558984769, 3.24812610861
0.950883341235, 3.25410343529
0.95064007954, 3.25932066715
0.948434352539, 3.26286571562
0.950348804084, 3.27041168882
0.95047490858, 3.27680552856
0.949664362627, 3.28282091469
0.950555937994, 3.28804219403
0.95049419146, 3.30068882683
0.950118587197, 3.30676988781
0.949626969978, 3.31314112308
0.949722336754, 3.31915225121
0.950227569147, 3.32479245877
0.949385395361, 3.33147674474
0.948962425647, 3.33459855138
0.949299411806, 3.34249041749
0.949716657714, 3.34927121869
0.949395487264, 3.35537508424
0.949811673502, 3.36135292076
0.949415108717, 3.36691430268
0.949281929774, 3.37180773076
0.948424751747, 3.37324298429
0.949254835896, 3.38398781024
0.949646577771, 3.3893777719
0.94929122659, 3.39496894279
0.950110335221, 3.40094907626
0.949767258123, 3.40641018107
0.949867767793, 3.41230246567
0.949959829439, 3.41782061427
0.95031031257, 3.42392879948
0.950419134795, 3.42938216362
0.949945623021, 3.43523774095
0.952461829517, 3.43839847865
0.949935251466, 3.44636370608
0.949161720352, 3.45010840784
0.951351186025, 3.45910376988
0.949694001343, 3.46259464278
0.950126501529, 3.47626933984
0.952580729816, 3.47963663991
0.950295105489, 3.48812625827
0.950300573206, 3.4946032478
0.949942363551, 3.50096284445
0.94872270154, 3.5047062635
0.950357161083, 3.51314133235
0.948264247511, 3.51731498385
0.948873638129, 3.52309647072
0.948810087423, 3.53054021646
0.948732733708, 3.53472227353
0.949862535602, 3.54292058127
0.949612884794, 3.54906960667
0.948875566783, 3.5500486239
0.950083661892, 3.56099770869
0.952230734424, 3.564619955
0.950180414457, 3.57233490918
0.949484709269, 3.58322373358
0.948867549452, 3.58574762547
0.951811873182, 3.59120246441
0.949671300399, 3.59978591386
0.948276309207, 3.60289993627
0.948826034757, 3.60796080271
0.949895816128, 3.61545116205
0.950292304497, 3.62123926373
0.949003896834, 3.62396423258
0.949224811391, 3.62872164197
0.950564973284, 3.6370911413
0.951842442141, 3.63959874052
0.950423107175, 3.64762339367
0.952100663047, 3.65023573087
0.950772391488, 3.65874045811
0.952413175511, 3.66102786098
0.950598441169, 3.66908470472
0.912315220308, 3.6839359934
0.949415771944, 3.67286382821
0.912167032936, 3.68686122509
0.909955604391, 3.69334220067
0.950649769075, 3.68108760665
0.910696311202, 3.69603987503
0.950778568074, 3.68585626624
0.952568330003, 3.68886248896
0.910353662667, 3.70151687794
0.950578854294, 3.6971803912
0.911485398057, 3.71276595594
0.949231891062, 3.7012032211
0.911233624601, 3.71305481994
0.950367699864, 3.70856610883
0.910444815197, 3.7191915967
0.949924925201, 3.71149506578
0.910976195897, 3.72527076354
0.909971229638, 3.7314601857
0.949144807228, 3.71809249012
0.950866038996, 3.72633187942
0.911447761173, 3.7368044861
0.951057091318, 3.73167167587
0.909620179119, 3.74215940465
0.950822418334, 3.73279632502
0.910375387729, 3.74826755702
0.950750404608, 3.74366332604
0.908551764741, 3.75402487252
0.950645065631, 3.74945421105
0.911376158598, 3.76311320331
0.909577479861, 3.76663060027
0.949954193632, 3.75087118262
0.909873258411, 3.77199663567
0.948793948145, 3.75901542952
0.951062826368, 3.76272381441
0.910474408848, 3.77776850245
0.910872845731, 3.78845330839
0.950464536502, 3.77307187226
0.949360333073, 3.77651596565
0.909533423084, 3.78969623728
0.948747944983, 3.78154157857
0.911976451082, 3.79757080879
0.952436979545, 3.78722459269
0.909256559998, 3.80261259836
0.912014767976, 3.80809470318
0.949226840127, 3.79185331502
0.910074254858, 3.81113658128
0.952709827364, 3.79807986326
0.951656672651, 3.80610224609
0.911960414494, 3.81916623352
0.95285639448, 3.80919834579
0.91096651586, 3.82116006189
0.951554211505, 3.81569792454
0.91276371068, 3.8293786612
0.910666553653, 3.83196050712
0.953393444089, 3.81827285489
0.910815027917, 3.83683544642
0.9520001119, 3.82602831602
0.909571520576, 3.84386190841
0.951997429307, 3.8262126704
0.952403902971, 3.83591120831
0.911093894009, 3.85114687549
0.951696184901, 3.83607451508
0.910457871813, 3.85151856925
0.953979391314, 3.8434856518
0.910403510569, 3.85697951176
0.951805311209, 3.84657112789
0.910537497621, 3.86190823036
0.910622439093, 3.86767919405
0.95243949446, 3.85712429958
0.911368395931, 3.87248039113
0.950914961587, 3.8598993955
0.952429916736, 3.86294665351
0.912991496646, 3.88102039957
0.953263441533, 3.86803405261
0.909420679841, 3.8836916372
0.951088827166, 3.87603329048
0.909930181931, 3.88994189115
0.952765497324, 3.88437742628
0.909893036998, 3.89841576959
0.910213976344, 3.90131541573
0.955879837414, 3.88652343934
0.95345988966, 3.89103188833
0.909717848079, 3.90889679021
0.952547296979, 3.90115744239
0.912913225645, 3.9152142638
0.95276379512, 3.90176945741
0.909960620136, 3.92020234227
0.951605618216, 3.90987657156
0.909741859947, 3.92428347656
0.909113070603, 3.93249651394
0.952929072854, 3.91789841833
0.953639825198, 3.91910357238
0.909851430699, 3.93503498401
0.953271602924, 3.92461145939
0.910069210426, 3.94307724343
0.950769414923, 3.93301131941
0.910337938476, 3.94583568784
0.952630339676, 3.94003556007
0.910471822122, 3.95135720026
0.909444387119, 3.95665793348
0.952693366513, 3.94568517069
0.910679370541, 3.96267915341
0.952648667626, 3.95136838926
0.951256380477, 3.95405494454
0.909624408234, 3.96735327624
0.953148761842, 3.96086933451
0.908504730616, 3.97510436244
0.950745549947, 3.96425734793
0.91122283351, 3.9798223476
0.954996468586, 3.9682953636
0.909633939362, 3.98186045365
0.952810257746, 3.97582058192
0.908282900054, 3.98614475527
0.909528310576, 3.99132040708
0.954074552812, 3.97744071288
0.949579492801, 3.98250668236
0.911158175111, 3.99816386244
0.954266663386, 3.98714572995
0.955568107505, 3.99151534308
0.908553018012, 3.99994019283
0.95137004007, 3.9943424156
0.908717302069, 4.00531062177
0.952770455815, 4.00286666055
0.908815616674, 4.00947570312
0.954638871325, 4.00509401588
0.908987079811, 4.01613985446
0.908355641538, 4.01891347148
0.9517661701, 4.00997934359
0.951449155009, 4.01450380795
0.909307511045, 4.02893761629
0.91211912937, 4.02969855002
0.953680814955, 4.02119840645
0.910518060003, 4.03423332522
0.953854377761, 4.02496169984
0.90867013274, 4.03829938434
0.956286590217, 4.02672930186
0.952504601443, 4.03150645347
0.908796316485, 4.03970783998
0.955829518421, 4.03556599453
0.95246101658, 4.03752244251
0.908604170967, 4.04461220005
0.908560036897, 4.05112980386
0.955838784913, 4.04373218926
0.910431956683, 4.05558925932
0.90908084404, 4.0574522813
0.952345969478, 4.05305008391
0.907624121454, 4.06518267414
0.952483052892, 4.05427913895
0.908815138821, 4.0693239092
0.954656788735, 4.06077013762
0.9094135967, 4.07236576295
0.95496196657, 4.06558159209
0.956961808796, 4.0686939199
0.908566824117, 4.07991487549
0.910277680112, 4.08170493222
0.953097783004, 4.07386616575
0.957064701555, 4.07788491981
0.910059386288, 4.08746471266
0.909971911149, 4.09237756737
0.955251803417, 4.08126211944
0.909940299245, 4.10128429858
0.956247550724, 4.0882415008
0.954550040939, 4.09440972182
0.958371254993, 4.09972354584
0.909989994023, 4.10285593677
0.909098433758, 4.11092474901
0.909853038735, 4.11453902288
0.954668064022, 4.105559172
0.909917612073, 4.12165098105
0.956594697088, 4.10805363291
0.911385896242, 4.12467324539
0.954821642918, 4.11626677911
0.911508396853, 4.12909639302
0.955466456529, 4.12111120204
0.912586048714, 4.14082875462
0.910586060494, 4.14201956805
0.957353415236, 4.12852379078
0.957911913597, 4.12801178937
0.958951465398, 4.13458630825
0.911779133612, 4.14433190197
0.912011562605, 4.15223721142
0.958330942625, 4.14248850343
0.91313117063, 4.15329333702
0.960135575332, 4.143361466
0.912412155505, 4.15795031579
0.959523685025, 4.15112240724
0.958271484769, 4.15359235234
0.961440178799, 4.15672525213
0.912735272881, 4.16455631842
0.914139661805, 4.16684845464
0.913812855641, 4.17275723801
0.961177230052, 4.16390374504
0.961410127188, 4.16793656707
0.914000519434, 4.17422595916
0.914577876791, 4.17888308382
0.959586575762, 4.17000285357
0.915191773979, 4.18271428896
0.959995782414, 4.17411387484
0.915186815344, 4.18628731833
0.961460282386, 4.18047071836
0.915487622387, 4.18975499967
0.964561787124, 4.17989668324
0.964385412021, 4.18411138272
0.915552110645, 4.19379216485
0.916317839193, 4.19747876787
0.961438431433, 4.18882523342
0.965019972527, 4.1905607589
0.916515265602, 4.20084457308
0.919050339955, 4.2103922456
0.966054487077, 4.19439672841
0.917903221605, 4.21056760197
0.966359380038, 4.20030251051
0.918768687789, 4.21485936322
0.964296770346, 4.20227868916
0.919315673848, 4.21511101137
0.919422762557, 4.22076656285
0.96760165939, 4.20374882871
0.967199091528, 4.21097375631
0.920370377278, 4.22446073705
0.967931436191, 4.21400275425
0.967981393503, 4.21917854717
0.920087346983, 4.22559022807
0.923456659014, 4.23126538914
0.968777707274, 4.22128296729
0.968506964283, 4.22691521057
0.967010726214, 4.22361302312
0.9214183367, 4.23484625864
0.921128146978, 4.2389816456
0.967489332659, 4.23104098224
0.972204124565, 4.23465925158
0.922684670456, 4.24016522842
0.924698209298, 4.25004205225
0.923197281093, 4.25108411083
0.971425993537, 4.2376174005
0.924177112284, 4.25551266918
0.972884840215, 4.24709954943
0.924774995251, 4.25694548955
0.971440478609, 4.24891621717
0.97443563921, 4.2551115603
0.92596305383, 4.26170631113
0.926663686454, 4.26652917015
0.972933993918, 4.257851321
0.973906711484, 4.26313696681
0.926977354862, 4.27177215952
0.927964215019, 4.27687782072
0.975699405698, 4.26555851564
0.933626235261, 4.28431670245
0.979409523246, 4.27536199835
0.9301566976, 4.28725322744
0.979404716778, 4.28126722594
0.981015622486, 4.28757237492
0.931282283729, 4.29558352741
0.932828458271, 4.29789381094
0.981801231912, 4.29144784564
0.984632012695, 4.29371974708
0.935585530389, 4.307319603
0.93645596359, 4.31325234877
0.983413474787, 4.3049994392
0.935654742356, 4.31699282151
0.9854224943, 4.30858397759
0.938954164871, 4.32399058521
0.937410849425, 4.32773435385
0.940063309145, 4.33318660179
0.940908046824, 4.33761507101
0.985941600965, 4.31046401664
0.942181515342, 4.34053185211
0.947109012817, 4.3474299366
0.945761579235, 4.3501839993
0.950676445175, 4.35637100977
0.947420978292, 4.35888436718
0.950720991865, 4.36807835895
0.952609962039, 4.37210880036
0.954445026249, 4.37452266108
0.955803154821, 4.37876616389
0.957525899532, 4.38368783307
0.958100133513, 4.3914241067
0.960258694483, 4.39153210124
0.960856412541, 4.39814829275
0.961260410599, 4.39931927898
0.964176127816, 4.40253671885
0.965052902857, 4.40917564101
0.96572068361, 4.41264033493
0.967279763466, 4.41601179797
0.968236427132, 4.42021201406
0.970066099127, 4.42583797574
0.971162967013, 4.4284754452
0.972582231025, 4.43244106748
0.974678593965, 4.43665271257
0.977158445708, 4.43823062816
0.977544152163, 4.44513576023
0.979349292266, 4.44873618457
0.98074353725, 4.45135707602
0.982788555101, 4.45912312326
0.984417472243, 4.46325693501
0.98687378252, 4.46759968624
0.988110182131, 4.4751409963
0.990807887981, 4.4791445546
0.992692559551, 4.48505533148
0.994771844816, 4.4896845549
0.99719785845, 4.49207876616
0.999613608181, 4.50140960144
1.00288105205, 4.5021266048
1.0050517145, 4.51021401989
1.00858247209, 4.51651204224
1.01090121306, 4.5222347321
1.013434704, 4.52855984315
1.01612328043, 4.53283466295
1.01873401129, 4.53892292026
1.02158025254, 4.54456598464
1.0234797776, 4.54931195159
1.02588514462, 4.55397948085
1.03009115273, 4.56072730119
1.03210572946, 4.56464084645
1.03577695439, 4.57047390013
1.03759328522, 4.57387801931
1.03997028852, 4.57903986117
1.04299088592, 4.58527493671
1.04681418913, 4.58937654626
1.04924791921, 4.59471904249
1.05098411638, 4.59767224919
1.05373142559, 4.6034120649
1.05570864432, 4.60687230479
1.05945678293, 4.61138924562
1.0618289791, 4.61631949818
1.06535733394, 4.62071760216
1.06574996574, 4.62402983395
1.0698551303, 4.62959836131
1.07254210688, 4.63477753143
1.07523167898, 4.63987669612
1.07898055278, 4.64481127248
1.08165169905, 4.65025052724
1.08488993648, 4.65540212084
1.08853256846, 4.66192726657
1.09110284659, 4.66580899086
1.09384332755, 4.67104528745
1.09837858064, 4.67720828213
1.10116228091, 4.68107451473
1.10490661298, 4.68746532675
1.10768343879, 4.6913587651
1.11124137867, 4.69534920347
1.11381686164, 4.70000783835
1.11726113874, 4.7054382417
1.11972931848, 4.70879768987
1.12216882911, 4.71359274074
1.12522731171, 4.71777045788
1.12847681584, 4.72197228677
1.13092699342, 4.72625050411
1.13429173399, 4.73167787655
1.13795111466, 4.73535082311
1.13923062083, 4.73941875495
1.14171133464, 4.74286245102
1.14542265294, 4.74700729954
1.14786182142, 4.75085269475
1.15133595152, 4.75533585168
1.15328848477, 4.75789544341
1.15632853615, 4.76257558244
1.16247373243, 4.77123746619
1.16503492495, 4.77544308045
1.16725838863, 4.77951729159
1.17021692071, 4.78295209043
1.17280317437, 4.78603377941
1.17595126459, 4.79061175537
1.17901821394, 4.79424313069
1.18215580889, 4.79960437525
1.18539173741, 4.80439172266
1.18925640987, 4.80858500327
1.19077177163, 4.81183050199
1.19461632526, 4.81780284654
1.19865021186, 4.82208169163
1.20229417026, 4.82542708524
1.20588740045, 4.83172748934
1.20681306437, 4.83385201688
1.21292462998, 4.84100768666
1.21676853201, 4.84599100656
1.22027498986, 4.84947221767
1.22479572862, 4.85586587135
1.22776873176, 4.85961761283
1.23066190722, 4.86309858487
1.23373647783, 4.86584196026
1.23679942914, 4.87100996567
1.24003725731, 4.8745836175
1.24314556796, 4.87889593939
1.24575467668, 4.88233332495
1.2494025901, 4.88516489187
1.25254387339, 4.88936506599
1.25461689706, 4.8924109176
1.25803850312, 4.89504855935
1.26013434998, 4.89885639435
1.25926505197, 4.90055473424
1.26499137601, 4.90505973715
1.26806432758, 4.90888844144
1.27055270185, 4.911970658
1.27143980822, 4.91334756567
1.27646169257, 4.91817644072
1.27804615793, 4.92143159887
1.28159613, 4.9244841464
1.28434467337, 4.92826800516
1.28881181502, 4.93219944733
1.29177704482, 4.935858971
1.29347978206, 4.93877078822
1.29694069357, 4.94188445217
1.29964065408, 4.94611512909
1.30399287607, 4.9494960375
1.30444057749, 4.9517862434
1.31139204783, 4.95715498492
1.31375661403, 4.96001789415
1.31845830906, 4.96391405697
1.32210442013, 4.96780673212
1.32490663543, 4.97116819489
1.32845219745, 4.97467794817
1.33260985578, 4.97898798225
1.33722834448, 4.98300009385
1.34083765269, 4.98628984629
1.34390704238, 4.98972719441
1.34912677864, 4.99408844813
1.35239881995, 4.99728471779
1.35622222137, 5.00001109048
1.36097025884, 5.00398989893
1.36451568461, 5.00683736965
1.36855153652, 5.00997215095
1.37236595092, 5.01360530974
1.37654215951, 5.01668789383
1.38050144742, 5.01984118092
1.38578789105, 5.02280375154
1.38876840804, 5.0256938703
1.391829756, 5.02882186185
1.39587754462, 5.03203277091
1.40043038229, 5.03509294929
1.403295492, 5.03753255851
1.40709303185, 5.03984403318
1.40996169003, 5.04193850529
1.41334763504, 5.04554238906
1.41780596128, 5.04896237867
1.42068946063, 5.05058215413
1.42424516534, 5.05307293871
1.4280437624, 5.05635473754
1.43079712422, 5.05812037602
1.43501116216, 5.06097927336
1.43910952891, 5.06463446835
1.44261823817, 5.06709694719
1.4481708306, 5.07059598122
1.45232052423, 5.07322422774
1.45498352982, 5.07587605541
1.45955613909, 5.07906153621
1.46466148062, 5.08253107566
1.46950652974, 5.08561131899
1.47334868429, 5.08926467322
1.47785629098, 5.09174092343
1.48250906149, 5.09401122307
1.48683050226, 5.09753366608
1.49290414612, 5.10055687044
1.49571460247, 5.10369629517
1.50078487276, 5.10598893136
1.50611892966, 5.1084513453
1.51072577631, 5.1112301067
1.51569109783, 5.11411977405
1.52033915094, 5.11772454949
1.52680279194, 5.1213648987
1.53021222229, 5.12377144614
1.5354007485, 5.12614855086
1.54133386023, 5.1288542643
1.54589255508, 5.13116120331
1.55080107984, 5.13459713116
1.55665324363, 5.1368662018
1.56151230424, 5.13886811488
1.56615187089, 5.14246327178
1.56686855756, 5.14456766868
1.57516499071, 5.14703525978
1.57614365786, 5.14902281258
1.58354627914, 5.15181542768
1.58578333869, 5.15418381832
1.59079015366, 5.15825200772
1.59855128026, 5.16006871031
1.603840493, 5.16276617122
1.60752744825, 5.16561358577
1.60945803768, 5.16670434934
1.61780841072, 5.17026223825
1.62241416701, 5.17295184286
1.62447238299, 5.17625175192
1.63359351544, 5.17779435196
1.63710771819, 5.18076826226
1.63900137493, 5.18299802155
1.64433340951, 5.18567549273
1.65128855906, 5.18776143833
1.65349025768, 5.19052672312
1.66264694924, 5.19204529912
1.6629671116, 5.19315160301
1.67144171452, 5.19595135393
1.67486766798, 5.19786078168
1.67624265716, 5.19972858781
1.68510940953, 5.20161349025
1.68712071137, 5.20365999617
1.69204075002, 5.20511272313
1.69416667508, 5.20671132315
1.69706248759, 5.20757811327
1.70598938517, 5.21128510994
1.70669387145, 5.21048216641
1.71303512645, 5.21430707002
1.7199463316, 5.21568519207
1.72471928396, 5.2148990862
1.73089810076, 5.21942933658
1.73453554634, 5.22179550599
1.73900455866, 5.22351747655
1.74154157247, 5.2215189193
1.74554962878, 5.22788267195
1.75279313149, 5.22585513208
1.75295961391, 5.228316298
1.76182016576, 5.22972660849
1.76983986984, 5.23492231913
1.77104104893, 5.23250744662
1.77516603076, 5.23507509271
1.7821888305, 5.23951513912
1.78279421354, 5.23905965112
1.79280278425, 5.24315188745
1.79332383852, 5.24361371556
1.8015270593, 5.24402876732
1.80610782212, 5.24572948156
1.81085369559, 5.25100104229
1.81713613659, 5.2490066683
1.81974771829, 5.25277930457
1.82799377867, 5.25288490135
1.83465761401, 5.25732589615
1.83935539025, 5.25879006492
1.84211380056, 5.26169041552
1.84822163174, 5.26028664342
1.85260422238, 5.26418546965
1.85498800713, 5.26384694986
1.86247030065, 5.26737197635
1.86424310409, 5.26592841525
1.87420044216, 5.26813050986
1.87445245441, 5.2690902275
1.88447358203, 5.27146294394
1.88761448342, 5.27261142802
1.8906517316, 5.27126206519
1.89296604871, 5.27422760005
1.89770241505, 5.27526779387
1.90790283307, 5.27645268267
1.90637255446, 5.27750262444
1.91503864732, 5.27896495893
1.91769481321, 5.27695714989
1.921795868, 5.27786542655
1.92617474607, 5.27882255619
1.92886592624, 5.28168221163
1.93315555262, 5.28150973873
1.93848111891, 5.28381895966
1.94938362563, 5.28422402082
1.95035314767, 5.28365246024
1.95909239068, 5.28652987258
1.9615117059, 5.28566419762
1.96580965279, 5.28966707867
1.9724869391, 5.28719031401
1.97719748343, 5.28779622813
1.98310693188, 5.28962224279
1.986435656, 5.29110017499
1.99208252799, 5.29258206829
2.00170400438, 5.29236891947
2.00453774804, 5.29287805558
2.01561733802, 5.29564429634
2.01469559498, 5.2942692278
2.0195075161, 5.29662763005
2.02156762319, 5.2978016914
2.02683232595, 5.29437354421
2.02772426622, 5.29605866116
2.02929211293, 5.29771276134
2.03246671447, 5.29564615367
2.03250269781, 5.29570415493
2.03282835095, 5.29665728651
2.02867651122, 5.29731044223
2.02843428019, 5.29685539347
2.02849332938, 5.29680334867
2.03266596397, 5.2966910892
2.02930583427, 5.29771619292
2.02875401776, 5.29730345698
2.0291278633, 5.29755836138
2.02954634468, 5.297433329
2.02945468825, 5.29746532449
2.02944959988, 5.29783163169
2.02980957925, 5.29815429907
2.02973638843, 5.29785865276
2.03203536538, 5.29521297166
2.03252472512, 5.29578162096
2.03155561027, 5.29732549192
2.03420298184, 5.2957298696
2.03235608393, 5.29757855634
2.03345509279, 5.29822312917
2.03969684864, 5.2977005229
2.04077143852, 5.29729701418
2.03833373158, 5.29553508763
2.03988036094, 5.29787866254
2.04209554442, 5.29830089456
2.04987100751, 5.29877474871
2.04917566749, 5.29746149768
2.05262604808, 5.29911745063
2.05601613614, 5.30045498878
2.06193944034, 5.29929276872
2.06584603261, 5.30053903282
2.07328961783, 5.29860234606
2.07960642838, 5.30288414802
2.08413278462, 5.300311098
2.09219845568, 5.29989494759
2.09912990196, 5.30235530031
2.10327020083, 5.30134736684
2.11168885718, 5.30377602182
2.11498547032, 5.30174190266
2.12225034789, 5.29960468639
2.12444257112, 5.30351618457
2.12758573735, 5.30257084509
2.13058871741, 5.3012062344
2.13299982076, 5.30317047591
2.1375084096, 5.30329020188
2.13919480046, 5.30254428401
2.1406289435, 5.30322762032
2.14146917342, 5.30321119405
2.14265016007, 5.30386683473
2.14341529352, 5.30062191122
2.14257189806, 5.30328601751
2.14299985661, 5.30382670533
2.14528027539, 5.3010690079
2.14422079655, 5.30346860377
2.14647957682, 5.30126028617
2.14730395485, 5.30396388929
2.14581451351, 5.30234749907
2.15010302486, 5.30403889119
2.1548971123, 5.30286149797
2.15356428626, 5.30307042299
2.15498550789, 5.30048089725
2.1571781845, 5.30083605599
2.15713129656, 5.30206152566
2.16219615246, 5.30424847973
2.1626493174, 5.30372699751
2.16822500076, 5.30110156204
2.17371159637, 5.30294785668
2.1790812699, 5.30240795154
2.17847876538, 5.30249097356
2.18974941754, 5.30170806539
2.19130678931, 5.30297386895
2.19452543136, 5.30222309169
2.20550574629, 5.3015989591
2.20555279342, 5.30186281775
2.2131869117, 5.30198376201
2.21841574038, 5.29758905246
2.22443184885, 5.29964639487
2.23005693493, 5.29630243832
2.23436617264, 5.29832063618
2.23969333779, 5.29769363802
2.24692524006, 5.29794511022
2.25553018778, 5.29728706033
2.25861731203, 5.29640023709
2.26879667397, 5.29467882456
2.26725170292, 5.2954018752
2.27365664449, 5.296266723
2.27892006557, 5.29273608682
2.27574303966, 5.29037006295
2.27509917734, 5.29325264873
2.27629037408, 5.29241847431
2.27696154573, 5.29236410426
2.27932597496, 5.29317569996
2.28285202322, 5.29167585441
2.27658433938, 5.29277340065
2.2765644075, 5.29351581103
2.27676342779, 5.29246927174
2.27673131089, 5.29318091062
2.27666085306, 5.29262063249
2.27677779389, 5.29310074608
2.2771207428, 5.29242719487
2.27720714627, 5.29298097401
2.27719178268, 5.2928314381
2.28002723043, 5.29388921919
2.28371192384, 5.29171469469
2.27857295339, 5.29306803088
2.28253739997, 5.29374489678
2.28381312648, 5.29371429933
2.28449377935, 5.29421100271
2.28950683236, 5.2912595774
2.28789845969, 5.2940467699
2.28716014828, 5.29114149195
2.28884292804, 5.29158115196
2.29468799239, 5.29213314297
2.29740546385, 5.28833656512
2.30521772406, 5.28928474491
2.30548474442, 5.29116060649
2.30951065388, 5.29035026487
2.31320418782, 5.2866190383
2.31915290024, 5.28499754803
2.32508464233, 5.28720022782
2.33021392177, 5.28369321975
2.33936359692, 5.28359925659
2.34375278898, 5.28138425256
2.35104061358, 5.27843221396
2.360493442, 5.27904781279
2.36590461433, 5.28065253484
2.37595767393, 5.27668418691
2.38438525875, 5.27551630229
2.39174373206, 5.27382174559
2.40044354363, 5.27254141775
2.40213368135, 5.26884417968
2.41247032613, 5.26732178526
2.41867958949, 5.2654128292
2.42610703159, 5.26479157672
2.4320520694, 5.2659981649
2.4385809787, 5.25999968975
2.44118431447, 5.26130983203
2.44558149966, 5.25727311405
2.45237015257, 5.2584145619
2.457688403, 5.25716780458
2.46474437026, 5.25324297745
2.47169951457, 5.25286086901
2.47726293069, 5.2487461143
2.48134480903, 5.24779865789
2.48571090022, 5.24729876575
2.49185801258, 5.24623350933
2.49409561696, 5.24405650337
2.49769694762, 5.24331709556
2.50182692064, 5.24218192437
2.50617415836, 5.24121709223
2.51024002627, 5.24042941773
2.51391274128, 5.23853802059
2.51817885363, 5.23725698968
2.51980480696, 5.23586395014
2.52493146845, 5.2367265698
2.53127164926, 5.23292778207
2.53474257185, 5.23394179016
2.53925014284, 5.22913835408
2.54317792037, 5.22778808756
2.54739158507, 5.22693364729
2.55095327436, 5.22785128252
2.55777515681, 5.22361237359
2.56106506063, 5.22208991643
2.56264114985, 5.22197587227
2.56921511695, 5.21892297888
2.57412928413, 5.21728280209
2.57799438362, 5.21588210845
2.58222563576, 5.21377469722
2.58638547999, 5.21241881138
2.59065499931, 5.21091995672
2.59482176698, 5.20952936086
2.59895521222, 5.20774588776
2.60363679649, 5.20618729246
2.60591091061, 5.20686715766
2.610447079, 5.20262784484
2.61454433541, 5.20059680198
2.61794366682, 5.20296540567
2.62176047937, 5.19774322853
2.62467779928, 5.19852812754
2.62861845572, 5.19722865408
2.63315789256, 5.19304106567
2.63534693711, 5.19485041276
2.6417772645, 5.19010171087
2.64437621435, 5.18811336152
2.64650412172, 5.18855244573
2.65129726539, 5.18674997598
2.65371516612, 5.18578055087
2.65887234139, 5.18074608907
2.66280558584, 5.17838340838
2.66167105766, 5.17928996776
2.67004334811, 5.1772257909
2.67570903135, 5.17299072654
2.67881097956, 5.17177306454
2.68427321609, 5.17188006631
2.68720286572, 5.16728295381
2.69311524243, 5.16495852654
2.69723218718, 5.16195309344
2.70064113382, 5.1610293975
2.7025986961, 5.15817912143
2.71028682709, 5.15531488336
2.7119164046, 5.15422741099
2.71796407637, 5.15232697875
2.72300420795, 5.14702302417
2.72708536749, 5.14712489579
2.73133295747, 5.14456207916
2.73785507154, 5.13907107514
2.73965532709, 5.13971770641
2.74416039535, 5.13678237243
2.74959529378, 5.13430738965
2.75198971274, 5.13233878099
2.7567050565, 5.12750915978
2.75965691395, 5.12691672403
2.76568644551, 5.12182674788
2.76983156022, 5.11983545254
2.77140375783, 5.12028563925
2.77194344337, 5.11846018017
2.77925893216, 5.1128811096
2.77959980531, 5.11176439846
2.78578950322, 5.10837601306
2.78967228938, 5.10614385352
2.79285320826, 5.10449537984
2.7954604521, 5.1029062268
2.79971123067, 5.09952270775
2.80234506126, 5.10048242926
2.80721096086, 5.09467675166
2.81066984184, 5.09652868009
2.81289727354, 5.09070747127
2.81362569258, 5.0891316581
2.81990083299, 5.08579676653
2.82481708406, 5.08336053885
2.82765744625, 5.08088043055
2.83237901279, 5.07858951309
2.83698472431, 5.07535302052
2.83948819123, 5.07274787302
2.8448080485, 5.06961833598
2.84901056508, 5.06674370414
2.85442548915, 5.06406225058
2.85805645584, 5.06083467399
2.86288735085, 5.0567735662
2.86682972759, 5.05410072845
2.87171534951, 5.04977507964
2.87811127234, 5.0460709782
2.8812279925, 5.0435110576
2.8875063716, 5.03836992414
2.89116058934, 5.03440187055
2.89673915181, 5.02968432246
2.90147037165, 5.02537873538
2.90572614756, 5.02151026599
2.90999679967, 5.01877085518
2.91552789147, 5.01518908007
2.9195932786, 5.0110342948
2.92318705586, 5.0074125878
2.92713517779, 5.00439120318
2.93158842768, 5.00020480764
2.93411809998, 4.99721199044
2.93823809641, 4.99368023034
2.94111436965, 4.99037617998
2.94605177403, 4.98688417491
2.94980413244, 4.98343543164
2.95199194966, 4.98125324928
2.95746852453, 4.97724282054
2.96136108335, 4.97317427397
2.964817778, 4.97093824826
2.96927172619, 4.96600983136
2.97252521652, 4.96180589076
2.97703606388, 4.95847656094
2.9810472461, 4.95543874202
2.98437949088, 4.95136534906
2.98824884388, 4.94833766515
2.99058335244, 4.94463805117
2.99258567059, 4.9430027146
2.99405964496, 4.94188281644
2.9964105811, 4.93949903386
2.99609489284, 4.93982744565
2.99736608982, 4.94248519565
2.99703811579, 4.94269192136
2.99696752619, 4.94008683697
2.99634746179, 4.93976128824
2.99640146613, 4.93961351734
2.99648104135, 4.93932270187
2.99648068545, 4.93888015013
2.99730638645, 4.93911646032
2.99645348503, 4.93895662107
2.9972913827, 4.93836469478
2.99644990845, 4.94011596755
2.99654566822, 4.93946981993
2.99651761612, 4.93946335255
2.99646946507, 4.94008565967
2.99651065901, 4.93875647319
2.99748373307, 4.93892525425
2.99590849163, 4.94011979415
2.99656258664, 4.93896794643
2.99661702585, 4.93927666256
2.99785329037, 4.93915514269
2.99832580224, 4.93763265409
2.99844385124, 4.9379237029
2.99934769672, 4.93758708143
3.00025122989, 4.93607928082
3.00143279842, 4.93541195952
3.00263494476, 4.93286891076
3.0038303794, 4.93099919976
3.00682444908, 4.93345994948
3.00827295725, 4.92884266606
3.01107881059, 4.92463997327
3.01370755284, 4.92277313076
3.0157149834, 4.92001877819
3.01863286918, 4.91743504335
3.0236545633, 4.91661405747
3.02624275933, 4.90863266783
3.03002951826, 4.90611315486
3.033981174, 4.90035322964
3.03676031254, 4.89756454259
3.04215553942, 4.89076245232
3.04635271128, 4.88600636588
3.05043825315, 4.88244074174
3.05451275265, 4.8769038288
3.05908269945, 4.87032943172
3.06212314138, 4.86547533004
3.0666809264, 4.86171775454
3.07100273974, 4.85515165283
3.07447267479, 4.84993871466
3.07855331846, 4.84639411849
3.08303211387, 4.84077489057
3.0869271649, 4.83480149745
3.09025655056, 4.82864569002
3.0950184455, 4.8243528964
3.09878608108, 4.81888039897
3.10281754647, 4.81428279079
3.10616592872, 4.80754186481
3.11089404589, 4.80204174009
3.11467087852, 4.79716759566
3.11814264762, 4.79124210305
3.12180370534, 4.78681265636
3.12522372487, 4.77980328411
3.12780576199, 4.77531958482
3.13172242134, 4.76895538259
3.13470498763, 4.7654713914
3.13749865008, 4.76067498701
3.14069771937, 4.75598406348
3.14344706797, 4.74961515027
3.14552846249, 4.74879602887
3.14894381346, 4.74094323861
3.1517470696, 4.73649156122
3.15438666529, 4.73199075609
3.1559553878, 4.7274677306
3.15917460166, 4.72297836634
3.16069108691, 4.71867714195
3.1630556966, 4.71448331636
3.1650431125, 4.7102435175
3.16709327955, 4.70637496001
3.16832039306, 4.70062209591
3.17141033903, 4.69807220457
3.17356396373, 4.69458114607
3.17549947205, 4.69063284397
3.17662967329, 4.68800361582
3.17848132147, 4.68468975397
3.18035088029, 4.68123651525
3.18296048885, 4.67709134206
3.1841239624, 4.67365882993
3.18615061944, 4.6726782976
3.18813646585, 4.66584541601
3.19145289937, 4.65996634382
3.1925266835, 4.65721005054
3.19489368442, 4.65297069379
3.19721598381, 4.64816322664
3.1995602529, 4.64310996585
3.20156331143, 4.63908247568
3.20233898772, 4.63674888484
3.20566333114, 4.62842243682
3.20587404513, 4.62638591122
3.21075154747, 4.61862463862
3.21226490232, 4.61152186922
3.21516573602, 4.60638830886
3.21422169307, 4.60549275671
3.21643911856, 4.60094120461
3.22062455821, 4.59355397739
3.22175112944, 4.58776480343
3.22492202085, 4.586760611
3.22411717177, 4.58251768724
3.22680388036, 4.57863121822
3.23031920515, 4.57081754198
3.23220124163, 4.56638298831
3.2340572554, 4.56226160508
3.23442952188, 4.55776304045
3.23604857118, 4.55327246043
3.23791410473, 4.54873258419
3.23929878019, 4.54420291682
3.24115245179, 4.54166480523
3.2421048273, 4.5351220088
3.24078972954, 4.53300471016
3.24493190865, 4.5262373639
3.24731984902, 4.52478285225
3.24458025518, 4.52251996371
3.24960554567, 4.51280590347
3.25155449353, 4.50802198761
3.25254339382, 4.5044190495
3.25493645805, 4.50309313476
3.25370385729, 4.49912760388
3.26015939434, 4.49360823369
3.25731939515, 4.49170248958
3.2604329133, 4.482528093
3.26242460374, 4.48065065459
3.26389804557, 4.47370390584
3.26448415947, 4.46884602797
3.26495063494, 4.46967902728
3.26853904839, 4.45934697796
3.26710373416, 4.45683288071
3.27087787921, 4.44996223125
3.269896378, 4.44743203162
3.27127158343, 4.44291324228
3.27035962409, 4.44012150434
3.27657159133, 4.43386732154
3.27810723884, 4.4255499705
3.27581728879, 4.42373197589
3.27770492267, 4.41950474245
3.27757744935, 4.41403858157
3.28221050052, 4.41015932318
3.28275174044, 4.40301743072
3.2845675627, 4.39929102976
3.28539487635, 4.39339174996
3.28369857308, 4.39242430494
3.28725782368, 4.38951088157
3.2853990125, 4.3842442844
3.28747661706, 4.3812701837
3.28714211355, 4.37585659369
3.28984104496, 4.37412646159
3.29060187414, 4.36772966496
3.29050593997, 4.36255831397
3.2947650565, 4.35590157405
3.29741777709, 4.35338478932
3.29355271961, 4.3485587085
3.29665375215, 4.34011810102
3.29592111342, 4.33815836828
3.29828720516, 4.33581165306
3.30103551391, 4.32584392228
3.29936510863, 4.32319831232
3.30316854345, 4.31544443432
3.30454967269, 4.31068530249
3.30307006307, 4.30835235187
3.307305943, 4.2991954656
3.30572218863, 4.29726049816
3.31003197672, 4.29188891354
3.33482738535, 4.27038013721
3.31055085479, 4.28387500266
3.3352005051, 4.26555113035
3.31220700285, 4.27894617428
3.3363670397, 4.26133506386
3.31211416104, 4.27244800687
3.31312406032, 4.26536086387
3.33610305521, 4.25665651617
3.33754753002, 4.25037639318
3.31454495416, 4.26203310716
3.31334301834, 4.25859505757
3.33843637795, 4.24520793689
3.3387160824, 4.23631563281
3.31706001384, 4.25069323821
3.34132851405, 4.23396508589
3.31568348492, 4.24731086194
3.34201411876, 4.22898958931
3.31937956684, 4.23991729457
3.34249319701, 4.22460303399
3.3432244874, 4.21619363452
3.31932523431, 4.23947557035
3.32107780393, 4.22937112438
3.34486514391, 4.21411148891
3.31916663387, 4.22635470012
3.3225552183, 4.22000104546
3.34544686242, 4.20972239901
3.34806409987, 4.20495638156
3.32427850406, 4.21465830138
3.34678610897, 4.20037999749
3.32329281239, 4.21497261867
3.348031806, 4.19638397092
3.34925738044, 4.1929358574
3.32528362649, 4.20546577051
3.32354968756, 4.20326918022
3.35074336555, 4.18806470799
3.35104116417, 4.18438136174
3.32645257604, 4.19782447014
3.32495386372, 4.19533481099
3.32674514834, 4.19433422547
3.35158291402, 4.18071453668
3.32780574451, 4.18557517918
3.34968222241, 4.17414289734
3.32663635949, 4.18405939855
3.35159600859, 4.17303275193
3.35259010657, 4.16848188584
3.32849993072, 4.18208348371
3.32930583704, 4.17284536903
3.3301902163, 4.17435245253
3.35287675654, 4.16475179983
3.35213435186, 4.15737940115
3.32848645482, 4.17026642809
3.35338429636, 4.15694559085
3.3540004998, 4.15248307849
3.32864332543, 4.16361172081
3.35477209293, 4.14795597011
3.32955989622, 4.15813322616
3.32944688882, 4.15427178942
3.3545702043, 4.14280622292
3.3558495284, 4.13811602768
3.33227586297, 4.15216305936
3.33262754182, 4.14188049005
3.3568814101, 4.13271195801
3.3560469455, 4.12476759544
3.33175001854, 4.13880685392
3.33271471686, 4.13292429512
3.35584138076, 4.1189393136
3.3570505747, 4.112297786
3.33411927065, 4.12998646109
3.3586544534, 4.11052998201
3.33296524066, 4.12125071945
3.3598499358, 4.1042500219
3.33490548437, 4.11105288162
3.33515962195, 4.10948312302
3.36208134869, 4.09829303038
3.33798124156, 4.10321828653
3.33824429072, 4.09484525131
3.36094462515, 4.09216561893
3.36253978923, 4.08620021884
3.33918341207, 4.08820889188
3.36306452991, 4.08001982474
3.3642481727, 4.07372875659
3.34159667867, 4.08479745808
3.36338108112, 4.06375065028
3.34014037219, 4.08023449011
3.36471819136, 4.060277838
3.34179285895, 4.07103836558
3.33984129096, 4.06451863597
3.33988599864, 4.05867967449
3.36489535463, 4.05090897528
3.36675628969, 4.04845836025
3.3436306427, 4.05278109119
3.36629734639, 4.03889013675
3.36737926707, 4.03446918204
3.34129722846, 4.04528328975
3.34423234272, 4.03634344339
3.36685749712, 4.02557186239
3.36870230291, 4.0226238677
3.34224859982, 4.0324541591
3.34555559757, 4.02730787915
3.34364834309, 4.021977523
3.36950786918, 4.0174584729
3.37028733332, 4.01096165403
3.34493117604, 4.01832881875
3.37034023168, 4.00547816127
3.346566654, 4.00710359018
3.37194324484, 3.99969639177
3.34624546801, 4.00249524983
3.37159969673, 3.99475363083
3.37173161835, 3.98959414471
3.34940991383, 3.99420144436
3.34573926822, 3.98978258188
3.34602647878, 3.98743577389
3.37236758349, 3.98506053329
3.37192614203, 3.97734983766
3.34707254921, 3.97973158084
3.37232099525, 3.97499951978
3.35012428191, 3.97478353441
3.37340400601, 3.97021677883
3.34740714603, 3.97041422422
3.37371032746, 3.95974011204
3.35147201912, 3.96613677147
3.37321969606, 3.96110151159
3.34801126504, 3.96095170588
3.35171511441, 3.95570875385
3.37354117209, 3.9528435386
3.37508652149, 3.95093202484
3.34877891476, 3.95132225524
3.37618584459, 3.94555461131
3.34835544344, 3.94560740647
3.37678979937, 3.9386842824
3.35018982375, 3.93566794823
3.37585397767, 3.93523970517
3.35018456019, 3.93693511363
3.37572116427, 3.93000861566
3.34987045511, 3.92945531479
3.37574279329, 3.92449808594
3.35238638583, 3.92102240951
3.35097693234, 3.91889108981
3.37642238689, 3.91967025131
3.37641824169, 3.91164598876
3.35116520084, 3.91373334351
3.37627088196, 3.9067204015
3.35170044038, 3.90802498558
3.37702976114, 3.90027455348
3.35544999377, 3.90258250941
3.37962657738, 3.89231734081
3.35243328887, 3.89663752197
3.37887281706, 3.88318412558
3.35653335359, 3.89056130453
3.38087786989, 3.88042520837
3.3552314785, 3.88311256544
3.35312367321, 3.87912279656
3.3815279836, 3.87561331737
3.38243369347, 3.86879141935
3.35562628521, 3.87358314646
3.35648555429, 3.86514918497
3.38195207135, 3.86301815449
3.38336373074, 3.8576119344
3.3552700059, 3.86183343297
3.38228659023, 3.85149844812
3.35722000851, 3.85312231586
3.38245418922, 3.84089714479
3.35643585524, 3.85024341775
3.38381778068, 3.83981480507
3.35621409791, 3.84409683599
3.35638872141, 3.83872012056
3.38422499319, 3.83461430268
3.38444655691, 3.82819045913
3.35665074632, 3.83320342304
3.38427404999, 3.82374554229
3.35868682006, 3.83011127468
3.38497311201, 3.81778309224
3.35705583953, 3.82272424585
3.38402860024, 3.8064402712
3.35682177025, 3.81716238469
3.38531110118, 3.80702575883
3.3835817562, 3.79954868019
3.35921442778, 3.81408129419
3.35778744516, 3.80630140593
3.35843951694, 3.80061560779
3.38700775811, 3.79573761525
3.38654189466, 3.7914827057
3.35809946003, 3.79564356657
3.38679992219, 3.78542558448
3.38759678458, 3.7809174686
3.36025475432, 3.79289990793
3.38653099146, 3.77570794387
3.35851746873, 3.78521561031
3.3594353446, 3.78206406097
3.36252366436, 3.77537769499
3.38658827544, 3.77050756703
3.36068606155, 3.77259005629
3.38830131087, 3.76352325187
3.39016471753, 3.75793933972
3.36077988374, 3.76675641007
3.38989483914, 3.7521919584
3.38806583657, 3.74948858051
3.35976031693, 3.75907568116
3.38986379115, 3.7417725079
3.39023450238, 3.73633040485
3.36497728279, 3.75376556539
3.36253721216, 3.74857415757
3.38738223215, 3.73227389142
3.36010978997, 3.74228113529
3.36198336234, 3.73883514893
3.38731535534, 3.72419480209
3.36298821722, 3.72823549396
3.38971156496, 3.72110349896
3.38917825887, 3.71350426333
3.39062467367, 3.71013175964
3.36293421513, 3.72758499354
3.36290690242, 3.72276543296
3.38863887231, 3.70277540654
3.36380741061, 3.71658223836
3.36409484047, 3.71137797043
3.39157803099, 3.69935621294
3.36534935544, 3.70587655672
3.3927514333, 3.69131399937
3.36611137732, 3.69745368349
3.39183504813, 3.68796022015
3.36384041161, 3.69212052593
3.39286066705, 3.68260284212
3.36503725528, 3.68841588624
3.39379079294, 3.67615913363
3.3936899126, 3.66782623702
3.36530321007, 3.68279579342
3.39356496917, 3.66479276121
3.36738041468, 3.67411021311
3.36563744947, 3.66828052632
3.39395345946, 3.65872658492
3.393329088, 3.65065720711
3.36527703309, 3.66491030104
3.36741608954, 3.6588682842
3.39493938412, 3.64499447567
3.36630578718, 3.65391078193
3.39434654999, 3.64127528409
3.36609796404, 3.64428402913
3.39509269108, 3.63500737781
3.39601902579, 3.63039339783
3.39503088965, 3.62410726136
3.39620574014, 3.61984942225
3.39551828467, 3.61284554374
3.39535547071, 3.60315585999
3.39599783013, 3.60311201493
3.39558481826, 3.59798703224
3.39386247012, 3.58991464981
3.39708416267, 3.58610985588
3.39731995543, 3.5828418499
3.39558474812, 3.57563760411
3.39637824506, 3.57288868206
3.39731076584, 3.56861719229
3.39884910056, 3.56375030505
3.39864046468, 3.5575779177
3.39858621842, 3.55300827981
3.39887293834, 3.54695426326
3.39932820882, 3.54226616784
3.39927494273, 3.53633479244
3.39972678607, 3.52863263207
3.39914907805, 3.52542030836
3.3988290917, 3.51971778724
3.40101556639, 3.51432395849
3.39969509267, 3.50759246395
3.39924936497, 3.49999430053
3.39869501668, 3.49655765647
3.40106870528, 3.48687441848
3.40075188277, 3.4859350561
3.40152873312, 3.48038759018
3.40162505765, 3.4728445595
3.39886366639, 3.46568379557
3.40226670135, 3.46215035067
3.40273301379, 3.45669631556
3.40331052628, 3.45010204057
3.40258913621, 3.4399488691
3.40345865337, 3.43875429918
3.4020902531, 3.42549845903
3.40184737555, 3.42152521794
3.40339475045, 3.41174663807
3.40199539053, 3.41086630796
3.40235653462, 3.40284270542
3.40320309255, 3.39997584535
3.4023031059, 3.39261879615
3.40229037734, 3.38937293029
3.40521377844, 3.38481836299
3.40468717708, 3.37424119794
3.40570762111, 3.36910988507
3.40509128561, 3.36420598661
3.40577304205, 3.35895313928
3.40568979003, 3.35351660741
3.40344205822, 3.34526873733
3.40631329221, 3.34237433168
3.40299903275, 3.33579903823
3.40386922445, 3.3245355952
3.40571033087, 3.32398964492
3.40869805056, 3.3165132147
3.4068283534, 3.31252313323
3.40849741047, 3.30508649624
3.40759193068, 3.30051964665
3.40657010068, 3.29556622408
3.40838476215, 3.28925121549
3.40668652982, 3.28458291222
3.40797604322, 3.27798554425
3.4062280112, 3.27177822652
3.40693495052, 3.26678205199
3.40634854146, 3.2604667323
3.40641791739, 3.25245712783
3.40903055205, 3.24829622132
3.40934847532, 3.24097377559
3.40769615522, 3.23715156751
3.40822300326, 3.232369822
3.40756797365, 3.22628512417
3.40988383228, 3.21937866211
3.40661539961, 3.21548046488
3.41030665438, 3.20838800039
3.40933085535, 3.20533996595
3.4101831989, 3.19826829596
3.40933908273, 3.1947758235
3.40962360986, 3.1890749381
3.41020733742, 3.187001046
3.40877723203, 3.18222903664
3.41028510118, 3.17491077204
3.40896359084, 3.17162212555
3.41033141876, 3.16552690387
3.40901724083, 3.16259965032
3.41011669789, 3.15494437885
3.4078548375, 3.15167851866
3.40951382888, 3.14426673076
3.40780629908, 3.13986416831
3.40926722202, 3.12988355851
3.40953280786, 3.12879909275
3.41071027162, 3.12280490881
3.41026924014, 3.11694582471
3.40950111495, 3.10981117284
